{
  "Comment.nvim": { "branch": "master", "commit": "e30b7f2008e52442154b66f7c519bfd2f1e32acb" },
  "LuaSnip": { "branch": "master", "commit": "c9b9a22904c97d0eb69ccb9bab76037838326817" },
  "bufferline.nvim": { "branch": "main", "commit": "655133c3b4c3e5e05ec549b9f8cc2894ac6f51b3" },
  "catppuccin": { "branch": "main", "commit": "d72341852556e2dfe19f779cc682c16dd58548fc" },
  "cmp-buffer": { "branch": "main", "commit": "3022dbc9166796b644a841a02de8dd1cc1d311fa" },
  "cmp-cmdline": { "branch": "main", "commit": "d250c63aa13ead745e3a40f61fdd3470efde3923" },
  "cmp-nvim-lsp": { "branch": "main", "commit": "99290b3ec1322070bcfb9e846450a46f6efa50f0" },
  "cmp-nvim-lsp-signature-help": { "branch": "main", "commit": "031e6ba70b0ad5eee49fd2120ff7a2e325b17fa7" },
  "cmp-path": { "branch": "main", "commit": "91ff86cd9c29299a64f968ebb45846c485725f23" },
  "cmp_luasnip": { "branch": "master", "commit": "98d9cb5c2c38532bd9bdb481067b20fea8f32e90" },
  "friendly-snippets": { "branch": "main", "commit": "dd2fd1281d4b22e7b4a5bfafa3e142d958e251f2" },
  "git-conflict.nvim": { "branch": "main", "commit": "a1badcd070d176172940eb55d9d59029dad1c5a6" },
  "gitsigns.nvim": { "branch": "main", "commit": "6668f379ca634c36b8e11453118590b91bf8b295" },
  "help-vsplit.nvim": { "branch": "master", "commit": "1268670db1bde2276fbfbadb9b12ec0c984ef229" },
  "hererocks": { "branch": "master", "commit": "c9c5444dea1e07e005484014a8231aa667be30b6" },
  "indent-blankline.nvim": { "branch": "master", "commit": "e10626f7fcd51ccd56d7ffc00883ba7e0aa28f78" },
  "lazy.nvim": { "branch": "main", "commit": "e5e9bf48211a13d9ee6c1077c88327c49c1ab4a0" },
  "lua-json5": { "branch": "master", "commit": "18d8308656f79fdaa5936b4e42bb07b4bbd2354e" },
  "lualine.nvim": { "branch": "master", "commit": "f4f791f67e70d378a754d02da068231d2352e5bc" },
  "luarocks.nvim": { "branch": "main", "commit": "1db9093915eb16ba2473cfb8d343ace5ee04130a" },
  "markdown-preview.nvim": { "branch": "master", "commit": "a923f5fc5ba36a3b17e289dc35dc17f66d0548ee" },
  "mason": { "branch": "main", "commit": "fc98833b6da5de5a9c5b1446ac541577059555be" },
  "mason-lspconfig": { "branch": "main", "commit": "1a31f824b9cd5bc6f342fc29e9a53b60d74af245" },
  "mini.ai": { "branch": "main", "commit": "6e01c0e5a15554852546fac9853960780ac52ed4" },
  "mini.cursorword": { "branch": "main", "commit": "939ffcc8c57694608ac0896418d4b9a7c5273909" },
  "neo-tree.nvim": { "branch": "main", "commit": "0ead8aaa301347b3555a1453ba3d36231cfff749" },
  "nui": { "branch": "main", "commit": "53e907ffe5eedebdca1cd503b00aa8692068ca46" },
  "nvim-bqf": { "branch": "main", "commit": "ebb6d2689e4427452180f17c53f29f7e460236f1" },
  "nvim-cmp": { "branch": "main", "commit": "12509903a5723a876abd65953109f926f4634c30" },
  "nvim-colorizer.lua": { "branch": "master", "commit": "a065833f35a3a7cc3ef137ac88b5381da2ba302e" },
  "nvim-dap": { "branch": "master", "commit": "52302f02fea3a490e55475de52fa4deb8af2eb11" },
  "nvim-dap-cortex-debug": { "branch": "master", "commit": "8c1c250f3b830f2d1633bc98463109b625408cda" },
  "nvim-dap-ui": { "branch": "master", "commit": "bc81f8d3440aede116f821114547a476b082b319" },
  "nvim-dap-virtual-text": { "branch": "master", "commit": "df66808cd78b5a97576bbaeee95ed5ca385a9750" },
  "nvim-lspconfig": { "branch": "master", "commit": "1110787f1b464888c59a044c48c5119d14078044" },
  "nvim-nio": { "branch": "master", "commit": "21f5324bfac14e22ba26553caf69ec76ae8a7662" },
  "one-small-step-for-vimkind": { "branch": "main", "commit": "b9def31568d20b16f7da9479a4174d165046fe8a" },
  "plenary": { "branch": "master", "commit": "857c5ac632080dba10aae49dba902ce3abf91b35" },
  "plenary.nvim": { "branch": "master", "commit": "857c5ac632080dba10aae49dba902ce3abf91b35" },
  "telescope": { "branch": "master", "commit": "78857db9e8d819d3cc1a9a7bdc1d39d127a36495" },
  "telescope-dap.nvim": { "branch": "master", "commit": "783366bd6c1e7fa0a5c59c07db37f49c805a28df" },
  "telescope-fzf-native.nvim": { "branch": "main", "commit": "2a5ceff981501cff8f46871d5402cd3378a8ab6a" },
  "telescope-live-grep-args.nvim": { "branch": "master", "commit": "649b662a8f476fd2c0289570764459e95ebaa3f3" },
  "todo-comments.nvim": { "branch": "main", "commit": "304a8d204ee787d2544d8bc23cd38d2f929e7cc5" },
  "treesitter": { "branch": "master", "commit": "1a6e42bb8c5c23d8e2c0acb842dcacac5ee06761" },
  "vim-easymotion": { "branch": "master", "commit": "b3cfab2a6302b3b39f53d9fd2cd997e1127d7878" },
  "vim-schlepp": { "branch": "master", "commit": "dfe67ad49d534e6c442d589c558da7b3ab052f03" },
  "vim-spell-pt-br": { "branch": "master", "commit": "3d7eb3098de77b86c8a880354b442b3d84b18a72" },
  "vim-wordmotion": { "branch": "master", "commit": "81d9bd298376ab0dc465c85d55afa4cb8d5f47a1" },
  "web-devicons": { "branch": "master", "commit": "1020869742ecb191f260818234517f4a1515cfe8" },
  "window-picker": { "branch": "main", "commit": "0dfef64eaf063e1cd27983ab11a30e7bc5b74fac" }
}
